{
  "properties": [
    {
      "name": "database.url",
      "type": "java.lang.String",
      "description": "Url Of the database."
    },
    {
      "name": "database.password",
      "type": "java.lang.String",
      "description": "Password for the database."
    },
    {
      "name": "database.username",
      "type": "java.lang.String",
      "description": "Username for the database."
    }
  ] }